Naif Alsader: Relational Data
…
airports

يعطينا معلومات المطار. نستطيع ان نميز كل مطار عن طريق العمود faa اي رمز المطار .

    airports

# A tibble: 1,458 x 8
   faa   name                 lat    lon   alt    tz dst   tzone      
   <chr> <chr>              <dbl>  <dbl> <dbl> <dbl> <chr> <chr>      
 1 04G   Lansdowne Airport   41.1  -80.6  1044    -5 A     America/Ne…
 2 06A   Moton Field Munic…  32.5  -85.7   264    -6 A     America/Ch…
 3 06C   Schaumburg Region…  42.0  -88.1   801    -6 A     America/Ch…
 4 06N   Randall Airport     41.4  -74.4   523    -5 A     America/Ne…
 5 09J   Jekyll Island Air…  31.1  -81.4    11    -5 A     America/Ne…
 6 0A9   Elizabethton Muni…  36.4  -82.2  1593    -5 A     America/Ne…
 7 0G6   Williams County A…  41.5  -84.5   730    -5 A     America/Ne…
 8 0G7   Finger Lakes Regi…  42.9  -76.8   492    -5 A     America/Ne…
 9 0P2   Shoestring Aviati…  39.8  -76.6  1000    -5 U     America/Ne…
10 0S9   Jefferson County …  48.1 -123.    108    -8 A     America/Lo…
# … with 1,448 more rows

planes

يعطينا معلومات كل طائرة، نستطيع تمييز كل طائره باستخدام العمود tailnum .

    planes

# A tibble: 3,322 x 9
   tailnum  year type    manufacturer model engines seats speed engine
   <chr>   <int> <chr>   <chr>        <chr>   <int> <int> <int> <chr> 
 1 N10156   2004 Fixed … EMBRAER      EMB-…       2    55    NA Turbo…
 2 N102UW   1998 Fixed … AIRBUS INDU… A320…       2   182    NA Turbo…
 3 N103US   1999 Fixed … AIRBUS INDU… A320…       2   182    NA Turbo…
 4 N104UW   1999 Fixed … AIRBUS INDU… A320…       2   182    NA Turbo…
 5 N10575   2002 Fixed … EMBRAER      EMB-…       2    55    NA Turbo…
 6 N105UW   1999 Fixed … AIRBUS INDU… A320…       2   182    NA Turbo…
 7 N107US   1999 Fixed … AIRBUS INDU… A320…       2   182    NA Turbo…
 8 N108UW   1999 Fixed … AIRBUS INDU… A320…       2   182    NA Turbo…
 9 N109UW   1999 Fixed … AIRBUS INDU… A320…       2   182    NA Turbo…
10 N110UW   1999 Fixed … AIRBUS INDU… A320…       2   182    NA Turbo…
# … with 3,312 more rows

weather

يعطينا معلومات الطقس في مطارات NYC لكل ساعة .

    weather

# A tibble: 26,115 x 15
   origin  year month   day  hour  temp  dewp humid wind_dir
   <chr>  <int> <int> <int> <int> <dbl> <dbl> <dbl>    <dbl>
 1 EWR     2013     1     1     1  39.0  26.1  59.4      270
 2 EWR     2013     1     1     2  39.0  27.0  61.6      250
 3 EWR     2013     1     1     3  39.0  28.0  64.4      240
 4 EWR     2013     1     1     4  39.9  28.0  62.2      250
 5 EWR     2013     1     1     5  39.0  28.0  64.4      260
 6 EWR     2013     1     1     6  37.9  28.0  67.2      240
 7 EWR     2013     1     1     7  39.0  28.0  64.4      240
 8 EWR     2013     1     1     8  39.9  28.0  62.2      250
 9 EWR     2013     1     1     9  39.9  28.0  62.2      260
10 EWR     2013     1     1    10  41    28.0  59.6      260
# … with 26,105 more rows, and 6 more variables: wind_speed <dbl>,
#   wind_gust <dbl>, precip <dbl>, pressure <dbl>, visib <dbl>,
#   time_hour <dttm>
…
في جدول الحضور

واصبح الرقم الوضيفي مع التاريخ هو Primary key في جدول الحضور

Mutating joins

وهي عمليه عمليه شبية ب ()mutate .حيث نقوم بإضافة اعمده اضافيه

على سبيل المثال خذ الجدول flights2

flights2 <- flights %>% 
  select(year:day, hour, origin, dest, tailnum, carrier)
flights2

# A tibble: 336,776 x 8
    year month   day  hour origin dest  tailnum carrier
   <int> <int> <int> <dbl> <chr>  <chr> <chr>   <chr>  
 1  2013     1     1     5 EWR    IAH   N14228  UA     
 2  2013     1     1     5 LGA    IAH   N24211  UA     
 3  2013     1     1     5 JFK    MIA   N619AA  AA     
 4  2013     1     1     5 JFK    BQN   N804JB  B6     
 5  2013     1     1     6 LGA    ATL   N668DN  DL     
 6  2013     1     1     5 EWR    ORD   N39463  UA     
 7  2013     1     1     6 EWR    FLL   N516JB  B6     
 8  2013     1     1     6 LGA    IAD   N829AS  EV     
 9  2013     1     1     6 JFK    MCO   N593JB  B6     
10  2013     1     1     6 LGA    ORD   N3ALAA  AA     
# … with 336,766 more rows

الان سوف نقوم باضافة اسماء شركات الطيران من جدول airlines

flights2 %>%
  select(-origin, -dest) %>% 
  left_join(airlines, by = "carrier")

# A tibble: 336,776 x 7
    year month   day  hour tailnum carrier name                    
   <int> <int> <int> <dbl> <chr>   <chr>   <chr>                   
 1  2013     1     1     5 N14228  UA      United Air Lines Inc.   
 2  2013     1     1     5 N24211  UA      United Air Lines Inc.   
 3  2013     1     1     5 N619AA  AA      American Airlines Inc.  
 4  2013     1     1     5 N804JB  B6      JetBlue Airways         
 5  2013     1     1     6 N668DN  DL      Delta Air Lines Inc.    
 6  2013     1     1     5 N39463  UA      United Air Lines Inc.   
 7  2013     1     1     6 N516JB  B6      JetBlue Airways         
 8  2013     1     1     6 N829AS  EV      ExpressJet Airlines Inc.
 9  2013     1     1     6 N593JB  B6      JetBlue Airways         
10  2013     1     1     6 N3ALAA  AA      American Airlines Inc.  
# … with 336,766 more rows
…
